SKR V1.3 board data/T0013.CSV

Model,DPO2004B
Firmware Version,1.52

Point Format,Y,
Horizontal Units,S,
Horizontal Scale,0.01,
Sample Interval,8e-07,
Filter Frequency,110000,
Record Length,125000,
Gating,0.0% to 100.0%,
Probe Attenuation,1,
Vertical Units,V,
Vertical Offset,0,
Vertical Scale,1,
Label,,
TIME,CH1,CH1 Peak Detect
-5.00000e-02,-0.06,-0.02
-4.99992e-02,-0.06,-0.1
-4.99984e-02,-0.06,-0.02
-4.99976e-02,-0.06,-0.1
-4.99968e-02,-0.06,-0.02
-4.99960e-02,-0.06,-0.1
-4.99952e-02,-0.06,-0.02
-4.99944e-02,-0.06,-0.1
-4.99936e-02,-0.06,-0.02
-4.99928e-02,-0.02,-0.1
-4.99920e-02,0.14,-0.02
-4.99912e-02,0.34,-0.1
-4.99904e-02,0.66,-0.02
-4.99896e-02,0.94,-0.14
-4.99888e-02,1.1,1.26
-4.99880e-02,1.18,1.18
-4.99872e-02,1.22,1.26
-4.99864e-02,1.22,1.18
-4.99856e-02,1.22,1.26
-4.99848e-02,1.22,1.18
-4.99840e-02,1.22,1.26
-4.99832e-02,1.22,1.18
-4.99824e-02,1.22,1.26
-4.99816e-02,1.22,1.18
-4.99808e-02,1.22,1.26
-4.99800e-02,1.22,1.18
-4.99792e-02,1.18,1.26
-4.99784e-02,1.06,1.18
-4.99776e-02,0.86,1.26
-4.99768e-02,0.58,1.18
-4.99760e-02,0.26,1.26
-4.99752e-02,0.06,-0.18
-4.99744e-02,-0.06,1.22
-4.99736e-02,-0.1,-0.14
-4.99728e-02,-0.1,-0.02
-4.99720e-02,-0.1,-0.14
-4.99712e-02,-0.1,-0.02
-4.99704e-02,-0.1,-0.14
-4.99696e-02,-0.1,-0.02
-4.99688e-02,-0.06,-0.14
-4.99680e-02,-0.06,-0.06
-4.99672e-02,-0.06,-0.14
-4.99664e-02,-0.06,-0.02
-4.99656e-02,0.02,-0.1
-4.99648e-02,0.22,-0.06
-4.99640e-02,0.5,-0.1
-4.99632e-02,0.82,-0.06
-4.99624e-02,1.02,-0.14
-4.99616e-02,1.18,1.3
-4.99608e-02,1.22,1.1
-4.99600e-02,1.22,1.3
-4.99592e-02,1.22,1.14
-4.99584e-02,1.22,1.3
-4.99576e-02,1.22,1.14
-4.99568e-02,1.22,1.26
-4.99560e-02,1.22,1.14
-4.99552e-02,1.22,1.26
-4.99544e-02,1.22,1.18
-4.99536e-02,1.22,1.26
-4.99528e-02,1.18,1.18
-4.99520e-02,1.14,1.26
-4.99512e-02,0.94,1.18
-4.99504e-02,0.7,1.26
-4.99496e-02,0.38,-0.18
-4.99488e-02,0.14,1.26
-4.99480e-02,0.02,-0.14
-4.99472e-02,-0.06,-0.02
-4.99464e-02,-0.06,-0.1
-4.99456e-02,-0.06,-0.02
-4.99448e-02,-0.06,-0.1
-4.99440e-02,-0.06,-0.02
-4.99432e-02,-0.06,-0.1
-4.99424e-02,-0.06,-0.02
-4.99416e-02,-0.06,-0.1
-4.99408e-02,-0.06,-0.02
-4.99400e-02,-0.06,-0.1
-4.99392e-02,-0.02,-0.02
-4.99384e-02,0.1,-0.1
-4.99376e-02,0.34,-0.02
-4.99368e-02,0.62,-0.1
-4.99360e-02,0.9,-0.02
-4.99352e-02,1.1,-0.14
-4.99344e-02,1.18,1.26
-4.99336e-02,1.22,1.18
-4.99328e-02,1.22,1.26
-4.99320e-02,1.22,1.18
-4.99312e-02,1.22,1.26
-4.99304e-02,1.22,1.18
-4.99296e-02,1.22,1.26
-4.99288e-02,1.22,1.18
-4.99280e-02,1.22,1.26
-4.99272e-02,1.22,1.18
-4.99264e-02,1.22,1.26
-4.99256e-02,1.18,1.18
-4.99248e-02,1.06,1.26
-4.99240e-02,0.86,1.18
-4.99232e-02,0.54,1.26
-4.99224e-02,0.26,-0.14
-4.99216e-02,0.06,1.22
-4.99208e-02,-0.06,-0.18
-4.99200e-02,-0.1,-0.02
-4.99192e-02,-0.1,-0.14
-4.99184e-02,-0.1,-0.02
-4.99176e-02,-0.1,-0.14
-4.99168e-02,-0.1,-0.02
-4.99160e-02,-0.1,-0.14
-4.99152e-02,-0.1,-0.02
-4.99144e-02,-0.1,-0.14
-4.99136e-02,-0.1,-0.06
-4.99128e-02,-0.06,-0.14
-4.99120e-02,0.02,-0.06
-4.99112e-02,0.18,-0.1
-4.99104e-02,0.46,-0.06
-4.99096e-02,0.74,-0.14
-4.99088e-02,1.02,1.18
-4.99080e-02,1.14,1.1
-4.99072e-02,1.22,1.3
-4.99064e-02,1.22,1.14
-4.99056e-02,1.22,1.26
-4.99048e-02,1.22,1.14
-4.99040e-02,1.22,1.26
-4.99032e-02,1.22,1.14
-4.99024e-02,1.22,1.26
-4.99016e-02,1.22,1.18
-4.99008e-02,1.22,1.26
-4.99000e-02,1.22,1.18
-4.98992e-02,1.18,1.26
-4.98984e-02,1.14,1.18
-4.98976e-02,0.98,1.26
-4.98968e-02,0.7,1.18
-4.98960e-02,0.42,1.26
-4.98952e-02,0.18,-0.14
-4.98944e-02,0.02,1.26
-4.98936e-02,-0.06,-0.1
-4.98928e-02,-0.06,-0.02
-4.98920e-02,-0.06,-0.1
-4.98912e-02,-0.06,-0.02
-4.98904e-02,-0.06,-0.1
-4.98896e-02,-0.06,-0.02
-4.98888e-02,-0.06,-0.1
-4.98880e-02,-0.06,-0.02
-4.98872e-02,-0.06,-0.1
-4.98864e-02,-0.06,-0.02
-4.98856e-02,-0.02,-0.1
-4.98848e-02,0.1,-0.02
-4.98840e-02,0.3,-0.1
-4.98832e-02,0.62,-0.02
-4.98824e-02,0.9,-0.14
-4.98816e-02,1.1,1.26
-4.98808e-02,1.18,1.18
-4.98800e-02,1.22,1.26
-4.98792e-02,1.22,1.18
-4.98784e-02,1.22,1.26
-4.98776e-02,1.22,1.18
-4.98768e-02,1.22,1.26
-4.98760e-02,1.22,1.18
-4.98752e-02,1.22,1.26
-4.98744e-02,1.22,1.18
-4.98736e-02,1.22,1.26
-4.98728e-02,1.22,1.18
-4.98720e-02,1.18,1.26
-4.98712e-02,1.06,1.18
-4.98704e-02,0.86,1.26
-4.98696e-02,0.58,1.18
-4.98688e-02,0.3,1.26
-4.98680e-02,0.06,-0.18
-4.98672e-02,-0.06,1.26
-4.98664e-02,-0.1,-0.14
-4.98656e-02,-0.1,-0.02
-4.98648e-02,-0.1,-0.14
-4.98640e-02,-0.1,-0.02
-4.98632e-02,-0.1,-0.14
-4.98624e-02,-0.1,-0.02
-4.98616e-02,-0.1,-0.14
-4.98608e-02,-0.1,-0.02
-4.98600e-02,-0.1,-0.14
-4.98592e-02,-0.06,-0.06
-4.98584e-02,-0.02,-0.1
-4.98576e-02,0.18,-0.06
-4.98568e-02,0.42,-0.1
-4.98560e-02,0.74,-0.06
-4.98552e-02,0.98,-0.14
-4.98544e-02,1.14,1.3
-4.98536e-02,1.22,1.14
-4.98528e-02,1.22,1.3
-4.98520e-02,1.22,1.14
-4.98512e-02,1.22,1.26
-4.98504e-02,1.22,1.14
-4.98496e-02,1.22,1.26
-4.98488e-02,1.22,1.18
-4.98480e-02,1.22,1.26
-4.98472e-02,1.22,1.18
-4.98464e-02,1.22,1.26
-4.98456e-02,1.18,1.18
-4.98448e-02,1.14,1.26
-4.98440e-02,0.98,1.18
-4.98432e-02,0.7,1.26
-4.98424e-02,0.42,-0.14
-4.98416e-02,0.14,1.26
-4.98408e-02,0.02,-0.14
-4.98400e-02,-0.06,-0.02
-4.98392e-02,-0.06,-0.1
-4.98384e-02,-0.06,-0.02
-4.98376e-02,-0.06,-0.1
-4.98368e-02,-0.06,-0.02
-4.98360e-02,-0.06,-0.1
-4.98352e-02,-0.06,-0.02
-4.98344e-02,-0.06,-0.1
-4.98336e-02,-0.06,-0.02
-4.98328e-02,-0.06,-0.1
-4.98320e-02,-0.02,-0.02
-4.98312e-02,0.06,-0.1
-4.98304e-02,0.26,-0.02
-4.98296e-02,0.58,-0.1
-4.98288e-02,0.86,-0.02
-4.98280e-02,1.06,-0.14
-4.98272e-02,1.18,1.26
-4.98264e-02,1.22,1.18
-4.98256e-02,1.22,1.26
-4.98248e-02,1.22,1.18
-4.98240e-02,1.22,1.22
-4.98232e-02,1.22,1.18
-4.98224e-02,1.22,1.26
-4.98216e-02,1.22,1.18
-4.98208e-02,1.22,1.26
-4.98200e-02,1.22,1.18
-4.98192e-02,1.22,1.26
-4.98184e-02,1.18,1.18
-4.98176e-02,1.1,1.26
-4.98168e-02,0.9,1.18
-4.98160e-02,0.58,1.26
-4.98152e-02,0.3,-0.14
-4.98144e-02,0.06,1.26
-4.98136e-02,-0.06,-0.18
-4.98128e-02,-0.1,-0.02
-4.98120e-02,-0.1,-0.14
-4.98112e-02,-0.1,-0.02
-4.98104e-02,-0.1,-0.14
-4.98096e-02,-0.1,-0.02
-4.98088e-02,-0.1,-0.14
-4.98080e-02,-0.1,-0.02
-4.98072e-02,-0.1,-0.14
-4.98064e-02,-0.1,-0.06
-4.98056e-02,-0.06,-0.14
-4.98048e-02,-0.02,-0.06
-4.98040e-02,0.14,-0.1
-4.98032e-02,0.42,-0.06
-4.98024e-02,0.7,-0.14
-4.98016e-02,0.98,1.02
-4.98008e-02,1.14,0.98
-4.98000e-02,1.18,1.3
-4.97992e-02,1.22,1.1
-4.97984e-02,1.22,1.3
-4.97976e-02,1.22,1.14
-4.97968e-02,1.22,1.26
-4.97960e-02,1.22,1.14
-4.97952e-02,1.22,1.26
-4.97944e-02,1.22,1.14
-4.97936e-02,1.22,1.26
-4.97928e-02,1.22,1.14
-4.97920e-02,1.18,1.26
-4.97912e-02,1.14,1.18
-4.97904e-02,0.98,1.26
-4.97896e-02,0.74,1.18
-4.97888e-02,0.42,1.26
-4.97880e-02,0.18,-0.14
-4.97872e-02,0.02,1.26
-4.97864e-02,-0.06,-0.1
-4.97856e-02,-0.06,-0.02
-4.97848e-02,-0.06,-0.1
-4.97840e-02,-0.06,-0.02
-4.97832e-02,-0.06,-0.1
-4.97824e-02,-0.06,-0.02
-4.97816e-02,-0.06,-0.1
-4.97808e-02,-0.06,-0.02
-4.97800e-02,-0.06,-0.1
-4.97792e-02,-0.06,-0.02
-4.97784e-02,-0.02,-0.1
-4.97776e-02,0.06,-0.02
-4.97768e-02,0.26,-0.1
-4.97760e-02,0.54,-0.02
-4.97752e-02,0.82,-0.14
-4.97744e-02,1.06,1.26
-4.97736e-02,1.18,1.18
-4.97728e-02,1.22,1.26
-4.97720e-02,1.22,1.18
-4.97712e-02,1.22,1.26
-4.97704e-02,1.22,1.18
-4.97696e-02,1.22,1.22
-4.97688e-02,1.22,1.18
-4.97680e-02,1.22,1.26
-4.97672e-02,1.22,1.14
-4.97664e-02,1.22,1.26
-4.97656e-02,1.22,1.18
-4.97648e-02,1.18,1.22
-4.97640e-02,1.1,1.18
-4.97632e-02,0.9,1.22
-4.97624e-02,0.62,1.18
-4.97616e-02,0.3,1.22
-4.97608e-02,0.1,-0.18
-4.97600e-02,-0.06,1.22
-4.97592e-02,-0.1,-0.18
-4.97584e-02,-0.1,-0.02
-4.97576e-02,-0.1,-0.14
-4.97568e-02,-0.1,-0.02
-4.97560e-02,-0.1,-0.14
-4.97552e-02,-0.1,-0.02
-4.97544e-02,-0.1,-0.14
-4.97536e-02,-0.1,-0.06
-4.97528e-02,-0.1,-0.14
-4.97520e-02,-0.1,-0.06
-4.97512e-02,-0.02,-0.14
-4.97504e-02,0.14,-0.06
-4.97496e-02,0.38,-0.14
-4.97488e-02,0.7,-0.06
-4.97480e-02,0.94,-0.14
-4.97472e-02,1.14,1.26
-4.97464e-02,1.18,1.1
-4.97456e-02,1.22,1.3
-4.97448e-02,1.22,1.14
-4.97440e-02,1.22,1.26
-4.97432e-02,1.22,1.14
-4.97424e-02,1.22,1.26
-4.97416e-02,1.22,1.14
-4.97408e-02,1.22,1.26
-4.97400e-02,1.22,1.18
-4.97392e-02,1.22,1.26
-4.97384e-02,1.18,1.14
-4.97376e-02,1.14,1.26
-4.97368e-02,0.98,1.18
-4.97360e-02,0.74,1.22
-4.97352e-02,0.46,1.18
-4.97344e-02,0.18,1.26
-4.97336e-02,0.02,-0.14
-4.97328e-02,-0.06,1.22
-4.97320e-02,-0.06,-0.1
-4.97312e-02,-0.06,-0.02
-4.97304e-02,-0.06,-0.1
-4.97296e-02,-0.06,-0.02
-4.97288e-02,-0.06,-0.1
-4.97280e-02,-0.06,-0.02
-4.97272e-02,-0.06,-0.1
-4.97264e-02,-0.06,-0.02
-4.97256e-02,-0.06,-0.1
-4.97248e-02,-0.06,-0.02
-4.97240e-02,0.06,-0.1
-4.97232e-02,0.22,-0.02
-4.97224e-02,0.5,-0.1
-4.97216e-02,0.82,-0.02
-4.97208e-02,1.02,-0.14
-4.97200e-02,1.18,1.26
-4.97192e-02,1.18,1.18
-4.97184e-02,1.22,1.26
-4.97176e-02,1.22,1.18
-4.97168e-02,1.22,1.22
-4.97160e-02,1.22,1.18
-4.97152e-02,1.22,1.22
-4.97144e-02,1.22,1.18
-4.97136e-02,1.22,1.22
-4.97128e-02,1.22,1.14
-4.97120e-02,1.18,1.26
-4.97112e-02,1.18,1.18
-4.97104e-02,1.1,1.22
-4.97096e-02,0.9,1.14
-4.97088e-02,0.62,1.22
-4.97080e-02,0.3,-0.14
-4.97072e-02,0.06,1.22
-4.97064e-02,-0.06,-0.18
-4.97056e-02,-0.1,-0.02
-4.97048e-02,-0.1,-0.14
-4.97040e-02,-0.1,-0.02
-4.97032e-02,-0.1,-0.14
-4.97024e-02,-0.1,-0.02
-4.97016e-02,-0.1,-0.14
-4.97008e-02,-0.1,-0.02
-4.97000e-02,-0.1,-0.14
-4.96992e-02,-0.1,-0.06
-4.96984e-02,-0.1,-0.14
-4.96976e-02,-0.06,-0.06
-4.96968e-02,0.1,-0.14
-4.96960e-02,0.34,-0.06
-4.96952e-02,0.66,-0.14
-4.96944e-02,0.94,-0.06
-4.96936e-02,1.1,-0.14
-4.96928e-02,1.18,1.3
-4.96920e-02,1.22,1.14
-4.96912e-02,1.22,1.26
-4.96904e-02,1.22,1.14
-4.96896e-02,1.22,1.26
-4.96888e-02,1.22,1.14
-4.96880e-02,1.22,1.26
-4.96872e-02,1.22,1.14
-4.96864e-02,1.22,1.26
-4.96856e-02,1.22,1.14
-4.96848e-02,1.18,1.26
-4.96840e-02,1.14,1.18
-4.96832e-02,0.98,1.26
-4.96824e-02,0.74,1.18
-4.96816e-02,0.42,1.22
-4.96808e-02,0.18,-0.18
-4.96800e-02,0.02,1.26
-4.96792e-02,-0.06,-0.1
-4.96784e-02,-0.06,-0.06
-4.96776e-02,-0.06,-0.1
-4.96768e-02,-0.06,-0.02
-4.96760e-02,-0.06,-0.1
-4.96752e-02,-0.06,-0.02
-4.96744e-02,-0.06,-0.1
-4.96736e-02,-0.06,-0.02
-4.96728e-02,-0.06,-0.1
-4.96720e-02,-0.06,-0.02
-4.96712e-02,-0.06,-0.1
-4.96704e-02,0.02,-0.02
-4.96696e-02,0.18,-0.1
-4.96688e-02,0.46,-0.02
-4.96680e-02,0.78,-0.14
-4.96672e-02,1.02,1.26
-4.96664e-02,1.14,1.18
-4.96656e-02,1.18,1.26
-4.96648e-02,1.22,1.18
-4.96640e-02,1.18,1.26
-4.96632e-02,1.18,1.18
-4.96624e-02,1.18,1.22
-4.96616e-02,1.18,1.14
-4.96608e-02,1.18,1.22
-4.96600e-02,1.18,1.14
-4.96592e-02,1.18,1.26
-4.96584e-02,1.18,1.14
-4.96576e-02,1.18,1.22
-4.96568e-02,1.06,1.14
-4.96560e-02,0.86,1.22
-4.96552e-02,0.58,1.14
-4.96544e-02,0.3,1.22
-4.96536e-02,0.06,-0.18
-4.96528e-02,-0.06,1.22
-4.96520e-02,-0.1,-0.18
-4.96512e-02,-0.1,-0.02
-4.96504e-02,-0.1,-0.18
-4.96496e-02,-0.1,-0.02
-4.96488e-02,-0.1,-0.14
-4.96480e-02,-0.1,-0.02
-4.96472e-02,-0.1,-0.14
-4.96464e-02,-0.1,-0.06
-4.96456e-02,-0.1,-0.14
-4.96448e-02,-0.1,-0.06
-4.96440e-02,-0.06,-0.14
-4.96432e-02,0.06,-0.06
-4.96424e-02,0.3,-0.14
-4.96416e-02,0.58,-0.06
-4.96408e-02,0.86,-0.14
-4.96400e-02,1.1,1.22
-4.96392e-02,1.18,1.1
-4.96384e-02,1.22,1.3
-4.96376e-02,1.22,1.14
-4.96368e-02,1.22,1.26
-4.96360e-02,1.22,1.14
-4.96352e-02,1.18,1.26
-4.96344e-02,1.18,1.14
-4.96336e-02,1.18,1.26
-4.96328e-02,1.18,1.14
-4.96320e-02,1.18,1.26
-4.96312e-02,1.18,1.14
-4.96304e-02,1.14,1.22
-4.96296e-02,0.98,1.14
-4.96288e-02,0.74,1.22
-4.96280e-02,0.46,1.14
-4.96272e-02,0.18,1.22
-4.96264e-02,0.02,-0.18
-4.96256e-02,-0.06,1.22
-4.96248e-02,-0.06,-0.1
-4.96240e-02,-0.06,-0.06
-4.96232e-02,-0.06,-0.1
-4.96224e-02,-0.06,-0.02
-4.96216e-02,-0.06,-0.1
-4.96208e-02,-0.06,-0.06
-4.96200e-02,-0.06,-0.1
-4.96192e-02,-0.06,-0.02
-4.96184e-02,-0.06,-0.1
-4.96176e-02,-0.06,-0.02
-4.96168e-02,0.02,-0.1
-4.96160e-02,0.18,-0.02
-4.96152e-02,0.46,-0.1
-4.96144e-02,0.74,-0.02
-4.96136e-02,0.98,-0.14
-4.96128e-02,1.14,1.26
-4.96120e-02,1.18,1.18
-4.96112e-02,1.22,1.26
-4.96104e-02,1.22,1.18
-4.96096e-02,1.22,1.26
-4.96088e-02,1.22,1.18
-4.96080e-02,1.22,1.22
-4.96072e-02,1.18,1.18
-4.96064e-02,1.18,1.22
-4.96056e-02,1.18,1.14
-4.96048e-02,1.18,1.22
-4.96040e-02,1.18,1.14
-4.96032e-02,1.1,1.22
-4.96024e-02,0.9,1.14
-4.96016e-02,0.62,1.26
-4.96008e-02,0.3,-0.14
-4.96000e-02,0.06,1.26
-4.95992e-02,-0.06,-0.22
-4.95984e-02,-0.1,-0.02
-4.95976e-02,-0.1,-0.14
-4.95968e-02,-0.1,-0.02
-4.95960e-02,-0.1,-0.14
-4.95952e-02,-0.1,-0.02
-4.95944e-02,-0.1,-0.14
-4.95936e-02,-0.1,-0.06
-4.95928e-02,-0.1,-0.14
-4.95920e-02,-0.1,-0.06
-4.95912e-02,-0.1,-0.14
-4.95904e-02,-0.06,-0.06
-4.95896e-02,0.06,-0.14
-4.95888e-02,0.26,-0.06
-4.95880e-02,0.58,-0.14
-4.95872e-02,0.86,-0.06
-4.95864e-02,1.06,-0.14
-4.95856e-02,1.18,1.3
-4.95848e-02,1.22,1.14
-4.95840e-02,1.22,1.3
-4.95832e-02,1.22,1.14
-4.95824e-02,1.22,1.26
-4.95816e-02,1.22,1.14
-4.95808e-02,1.18,1.26
-4.95800e-02,1.18,1.14
-4.95792e-02,1.18,1.26
-4.95784e-02,1.18,1.14
-4.95776e-02,1.18,1.26
-4.95768e-02,1.14,1.14
-4.95760e-02,0.98,1.22
-4.95752e-02,0.74,1.14
-4.95744e-02,0.42,1.26
-4.95736e-02,0.18,-0.14
-4.95728e-02,0.02,1.22
-4.95720e-02,-0.06,-0.1
-4.95712e-02,-0.06,-0.02
-4.95704e-02,-0.06,-0.1
-4.95696e-02,-0.06,-0.02
-4.95688e-02,-0.06,-0.1
-4.95680e-02,-0.06,-0.02
-4.95672e-02,-0.06,-0.1
-4.95664e-02,-0.06,-0.02
-4.95656e-02,-0.06,-0.1
-4.95648e-02,-0.06,-0.06
-4.95640e-02,-0.06,-0.1
-4.95632e-02,-0.02,-0.02
-4.95624e-02,0.14,-0.1
-4.95616e-02,0.38,-0.02
-4.95608e-02,0.7,-0.14
-4.95600e-02,0.94,-0.02
-4.95592e-02,1.14,-0.14
-4.95584e-02,1.18,1.26
-4.95576e-02,1.18,1.18
-4.95568e-02,1.18,1.22
-4.95560e-02,1.18,1.14
-4.95552e-02,1.18,1.26
-4.95544e-02,1.18,1.14
-4.95536e-02,1.18,1.22
-4.95528e-02,1.18,1.18
-4.95520e-02,1.18,1.22
-4.95512e-02,1.18,1.14
-4.95504e-02,1.18,1.22
-4.95496e-02,1.1,1.14
-4.95488e-02,0.9,1.22
-4.95480e-02,0.62,1.18
-4.95472e-02,0.34,1.22
-4.95464e-02,0.1,-0.18
-4.95456e-02,-0.06,1.22
-4.95448e-02,-0.1,-0.18
-4.95440e-02,-0.1,-0.02
-4.95432e-02,-0.1,-0.14
-4.95424e-02,-0.1,-0.02
-4.95416e-02,-0.1,-0.14
-4.95408e-02,-0.1,-0.02
-4.95400e-02,-0.1,-0.14
-4.95392e-02,-0.1,-0.06
-4.95384e-02,-0.1,-0.14
-4.95376e-02,-0.1,-0.06
-4.95368e-02,-0.06,-0.14
-4.95360e-02,0.02,-0.06
-4.95352e-02,0.22,-0.14
-4.95344e-02,0.5,-0.06
-4.95336e-02,0.82,-0.14
-4.95328e-02,1.06,1.18
-4.95320e-02,1.18,1.1
-4.95312e-02,1.22,1.3
-4.95304e-02,1.22,1.14
-4.95296e-02,1.22,1.26
-4.95288e-02,1.18,1.14
-4.95280e-02,1.18,1.26
-4.95272e-02,1.18,1.14
-4.95264e-02,1.18,1.26
-4.95256e-02,1.18,1.14
-4.95248e-02,1.18,1.22
-4.95240e-02,1.18,1.14
-4.95232e-02,1.14,1.22
-4.95224e-02,0.98,1.14
-4.95216e-02,0.74,1.22
-4.95208e-02,0.46,1.14
-4.95200e-02,0.18,1.22
-4.95192e-02,0.02,-0.18
-4.95184e-02,-0.06,1.22
-4.95176e-02,-0.06,-0.1
-4.95168e-02,-0.06,-0.02
-4.95160e-02,-0.06,-0.1
-4.95152e-02,-0.06,-0.02
-4.95144e-02,-0.06,-0.1
-4.95136e-02,-0.06,-0.02
-4.95128e-02,-0.06,-0.1
-4.95120e-02,-0.06,-0.02
-4.95112e-02,-0.06,-0.1
-4.95104e-02,-0.06,-0.02
-4.95096e-02,-0.02,-0.1
-4.95088e-02,0.14,-0.02
-4.95080e-02,0.38,-0.1
-4.95072e-02,0.66,-0.02
-4.95064e-02,0.94,-0.14
-4.95056e-02,1.1,1.26
-4.95048e-02,1.18,1.14
-4.95040e-02,1.18,1.22
-4.95032e-02,1.18,1.18
-4.95024e-02,1.18,1.22
-4.95016e-02,1.18,1.14
-4.95008e-02,1.18,1.22
-4.95000e-02,1.18,1.14
-4.94992e-02,1.18,1.22
-4.94984e-02,1.18,1.18
-4.94976e-02,1.18,1.22
-4.94968e-02,1.18,1.14
-4.94960e-02,1.1,1.22
-4.94952e-02,0.9,1.14
-4.94944e-02,0.62,1.22
-4.94936e-02,0.3,-0.14
-4.94928e-02,0.1,1.22
-4.94920e-02,-0.06,-0.18
-4.94912e-02,-0.1,-0.02
-4.94904e-02,-0.1,-0.18
-4.94896e-02,-0.1,-0.02
-4.94888e-02,-0.1,-0.14
-4.94880e-02,-0.1,-0.02
-4.94872e-02,-0.1,-0.14
-4.94864e-02,-0.1,-0.06
-4.94856e-02,-0.1,-0.14
-4.94848e-02,-0.1,-0.06
-4.94840e-02,-0.1,-0.14
-4.94832e-02,-0.06,-0.06
-4.94824e-02,0.02,-0.14
-4.94816e-02,0.22,-0.06
-4.94808e-02,0.5,-0.14
-4.94800e-02,0.78,-0.06
-4.94792e-02,1.02,-0.14
-4.94784e-02,1.14,1.3
-4.94776e-02,1.18,1.1
-4.94768e-02,1.18,1.3
-4.94760e-02,1.18,1.14
-4.94752e-02,1.18,1.26
-4.94744e-02,1.18,1.14
-4.94736e-02,1.18,1.26
-4.94728e-02,1.18,1.14
-4.94720e-02,1.18,1.26
-4.94712e-02,1.18,1.14
-4.94704e-02,1.18,1.22
-4.94696e-02,1.14,1.14
-4.94688e-02,0.98,1.22
-4.94680e-02,0.74,1.14
-4.94672e-02,0.46,1.22
-4.94664e-02,0.18,-0.14
-4.94656e-02,0.02,1.22
-4.94648e-02,-0.06,-0.1
-4.94640e-02,-0.06,-0.02
-4.94632e-02,-0.06,-0.1
-4.94624e-02,-0.06,-0.06
-4.94616e-02,-0.06,-0.1
-4.94608e-02,-0.06,-0.06
-4.94600e-02,-0.06,-0.1
-4.94592e-02,-0.06,-0.02
-4.94584e-02,-0.06,-0.1
-4.94576e-02,-0.06,-0.02
-4.94568e-02,-0.06,-0.1
-4.94560e-02,-0.02,-0.02
-4.94552e-02,0.1,-0.1
-4.94544e-02,0.34,-0.02
-4.94536e-02,0.62,-0.1
-4.94528e-02,0.9,-0.02
-4.94520e-02,1.1,-0.14
-4.94512e-02,1.18,1.26
-4.94504e-02,1.22,1.18
-4.94496e-02,1.22,1.22
-4.94488e-02,1.22,1.18
-4.94480e-02,1.22,1.26
-4.94472e-02,1.22,1.18
-4.94464e-02,1.22,1.22
-4.94456e-02,1.18,1.18
-4.94448e-02,1.18,1.22
-4.94440e-02,1.18,1.14
-4.94432e-02,1.18,1.22
-4.94424e-02,1.1,1.14
-4.94416e-02,0.9,1.22
-4.94408e-02,0.62,1.14
-4.94400e-02,0.34,1.22
-4.94392e-02,0.1,-0.18
-4.94384e-02,-0.06,1.22
-4.94376e-02,-0.1,-0.18
-4.94368e-02,-0.1,-0.02
-4.94360e-02,-0.1,-0.18
-4.94352e-02,-0.1,-0.02
-4.94344e-02,-0.1,-0.14
-4.94336e-02,-0.1,-0.02
-4.94328e-02,-0.1,-0.14
-4.94320e-02,-0.1,-0.06
-4.94312e-02,-0.1,-0.14
-4.94304e-02,-0.1,-0.06
-4.94296e-02,-0.1,-0.14
-4.94288e-02,-0.02,-0.06
-4.94280e-02,0.18,-0.14
-4.94272e-02,0.42,-0.06
-4.94264e-02,0.74,-0.14
-4.94256e-02,0.98,1.18
-4.94248e-02,1.14,1.1
-4.94240e-02,1.18,1.3
-4.94232e-02,1.18,1.14
-4.94224e-02,1.18,1.26
-4.94216e-02,1.18,1.14
-4.94208e-02,1.18,1.26
-4.94200e-02,1.18,1.14
-4.94192e-02,1.18,1.26
-4.94184e-02,1.18,1.14
-4.94176e-02,1.18,1.26
-4.94168e-02,1.18,1.14
-4.94160e-02,1.14,1.22
-4.94152e-02,0.98,1.14
-4.94144e-02,0.74,1.22
-4.94136e-02,0.46,1.14
-4.94128e-02,0.18,1.22
-4.94120e-02,0.02,-0.14
-4.94112e-02,-0.06,1.22
-4.94104e-02,-0.06,-0.1
-4.94096e-02,-0.06,-0.02
-4.94088e-02,-0.06,-0.1
-4.94080e-02,-0.06,-0.06
-4.94072e-02,-0.06,-0.1
-4.94064e-02,-0.06,-0.02
-4.94056e-02,-0.06,-0.1
-4.94048e-02,-0.06,-0.06
-4.94040e-02,-0.06,-0.1
-4.94032e-02,-0.06,-0.06
-4.94024e-02,-0.02,-0.1
-4.94016e-02,0.06,-0.02
-4.94008e-02,0.3,-0.1
-4.94000e-02,0.58,-0.02
-4.93992e-02,0.86,-0.14
-4.93984e-02,1.06,1.26
-4.93976e-02,1.18,1.18
-4.93968e-02,1.18,1.22
-4.93960e-02,1.18,1.18
-4.93952e-02,1.18,1.22
-4.93944e-02,1.18,1.14
-4.93936e-02,1.18,1.22
-4.93928e-02,1.18,1.18
-4.93920e-02,1.18,1.22
-4.93912e-02,1.18,1.18
-4.93904e-02,1.18,1.22
-4.93896e-02,1.18,1.14
-4.93888e-02,1.1,1.22
-4.93880e-02,0.9,1.14
-4.93872e-02,0.62,1.22
-4.93864e-02,0.34,-0.14
-4.93856e-02,0.1,1.22
-4.93848e-02,-0.06,-0.18
-4.93840e-02,-0.1,-0.02
-4.93832e-02,-0.1,-0.18
-4.93824e-02,-0.1,-0.02
-4.93816e-02,-0.1,-0.14
-4.93808e-02,-0.1,-0.02
-4.93800e-02,-0.1,-0.14
-4.93792e-02,-0.1,-0.06
-4.93784e-02,-0.1,-0.14
-4.93776e-02,-0.1,-0.06
-4.93768e-02,-0.1,-0.14
-4.93760e-02,-0.1,-0.06
-4.93752e-02,-0.02,-0.14
-4.93744e-02,0.14,-0.06
-4.93736e-02,0.42,-0.14
-4.93728e-02,0.7,-0.06
-4.93720e-02,0.98,-0.14
-4.93712e-02,1.14,1.22
-4.93704e-02,1.18,1.14
-4.93696e-02,1.18,1.3
-4.93688e-02,1.18,1.14
-4.93680e-02,1.18,1.26
-4.93672e-02,1.18,1.14
-4.93664e-02,1.18,1.26
-4.93656e-02,1.18,1.14
-4.93648e-02,1.18,1.26
-4.93640e-02,1.18,1.14
-4.93632e-02,1.18,1.22
-4.93624e-02,1.14,1.14
-4.93616e-02,0.98,1.22
-4.93608e-02,0.74,1.14
-4.93600e-02,0.46,1.22
-4.93592e-02,0.18,-0.14
-4.93584e-02,0.02,1.22
-4.93576e-02,-0.06,-0.1
-4.93568e-02,-0.06,-0.06
-4.93560e-02,-0.06,-0.1
-4.93552e-02,-0.06,-0.06
-4.93544e-02,-0.06,-0.1
-4.93536e-02,-0.06,-0.02
-4.93528e-02,-0.06,-0.1
-4.93520e-02,-0.06,-0.02
-4.93512e-02,-0.06,-0.1
-4.93504e-02,-0.06,-0.06
-4.93496e-02,-0.06,-0.1
-4.93488e-02,-0.06,-0.02
-4.93480e-02,0.06,-0.1
-4.93472e-02,0.26,-0.06
-4.93464e-02,0.54,-0.1
-4.93456e-02,0.82,-0.02
-4.93448e-02,1.06,-0.14
-4.93440e-02,1.14,1.26
-4.93432e-02,1.18,1.14
-4.93424e-02,1.18,1.22
-4.93416e-02,1.18,1.14
-4.93408e-02,1.18,1.22
-4.93400e-02,1.18,1.14
-4.93392e-02,1.18,1.22
-4.93384e-02,1.18,1.14
-4.93376e-02,1.18,1.22
-4.93368e-02,1.18,1.14
-4.93360e-02,1.18,1.22
-4.93352e-02,1.1,1.14
-4.93344e-02,0.9,1.22
-4.93336e-02,0.62,1.14
-4.93328e-02,0.3,1.22
-4.93320e-02,0.1,-0.18
-4.93312e-02,-0.06,1.22
-4.93304e-02,-0.1,-0.18
